%YAML 1.1
%TAG !u! tag:unity3d.com,2011:
--- !u!114 &11400000
MonoBehaviour:
  m_ObjectHideFlags: 0
  m_CorrespondingSourceObject: {fileID: 0}
  m_PrefabInstance: {fileID: 0}
  m_PrefabAsset: {fileID: 0}
  m_GameObject: {fileID: 0}
  m_Enabled: 1
  m_EditorHideFlags: 0
  m_Script: {fileID: 11500000, guid: 2f517ad94e8ba4d51bcc172fad5f2073, type: 3}
  m_Name: SdkConfiguration_Staging
  m_EditorClassIdentifier: 
  Environment: staging
  DebugSdkEvents: 1
  SdkVersion: 0.7.13
  AnalyticsConfiguration: {fileID: 0}
  BackendConfiguration: {fileID: 11400000, guid: e3ed4f839fcdb8947a7fcd5437a2aa1c,
    type: 2}
  AdsConfiguration: {fileID: 0}
  IapValidationConfiguration: {fileID: 0}
